Inicio
     Numerico entero=0
     Numerico ping=0
     Numerico pong=0
     Hacer
	ping<--- entero mod 3
     	pong<--- entero mod 5
	si (ping es igual a 0 y pong es igual a cero) entonces
	     Escribir "Ping-Pong"
	sino si (ping es igual a 0){
	     Escribir "Ping"
	} sino si (pong es igual a 0){
	     Escribir "Pong"
	}
	fin-si
	entero<--- entero +1
     repetir mientras(entero sea menor que 101)
Fin
